<?xml version="1.0" encoding="UTF-8" standalone="no"?>
<svg
    xmlns:inkscape="http://www.inkscape.org/namespaces/inkscape"
    xmlns:rdf="http://www.w3.org/1999/02/22-rdf-syntax-ns#"
    xmlns="http://www.w3.org/2000/svg"
    xmlns:xlink="http://www.w3.org/1999/xlink"
    xmlns:ns1="http://sozi.baierouge.fr"
    xmlns:cc="http://web.resource.org/cc/"
    xmlns:sodipodi="http://sodipodi.sourceforge.net/DTD/sodipodi-0.dtd"
    xmlns:dc="http://purl.org/dc/elements/1.1/"
    id="svg1"
    sodipodi:docname="ledger.svg"
    viewBox="0 0 60 60"
    sodipodi:version="0.32"
    _SVGFile__filename="oldscale/apps/korganizer.svg"
    version="1.0"
    y="0"
    x="0"
    inkscape:version="0.40"
    sodipodi:docbase="/home/danny/work/flat/SVG/mono/scalable"
  >
  <sodipodi:namedview
      id="base"
      bordercolor="#666666"
      inkscape:pageshadow="2"
      inkscape:window-y="0"
      pagecolor="#ffffff"
      inkscape:window-height="698"
      inkscape:zoom="9.4241914"
      inkscape:window-x="0"
      borderopacity="1.0"
      inkscape:current-layer="svg1"
      inkscape:cx="44.385316"
      inkscape:cy="22.512387"
      inkscape:window-width="1024"
      inkscape:pageopacity="0.0"
  />
  <path
      id="path1103"
      style="stroke-linejoin:round;stroke:#ffffff;stroke-width:8.125;fill:none"
      d="m6.8014 14.384c-1.0997 0-1.9851 0.725-1.9851 1.625v37.679c0 0.9 0.8854 1.625 1.9851 1.625h46.398c1.099 0 1.985-0.725 1.985-1.625v-37.679c0-0.9-0.886-1.625-1.985-1.625h-46.398z"
  />
  <path
      id="rect812"
      style="stroke-linejoin:round;fill-rule:evenodd;stroke:#000000;stroke-width:3.4802;fill:#ffffff"
      d="m6.6786 5.1165c-1.108 0-2 0.892-2 2v46.384c0 1.109 0.892 2.001 2 2.001h46.744c1.108 0 2-0.892 2-2v-46.384c0-1.1085-0.892-2.0005-2-2.0005h-46.744z"
      transform="matrix(.99256 0 0 .81232 .17250 10.228)"
  />
  <path
      id="rect842"
      style="stroke-linejoin:round;fill-rule:evenodd;stroke:#000000;stroke-width:1.9913;fill:#ffffff"
      d="m8.7119 8.1756c-0.44 0-0.7943 0.3543-0.7943 0.7943v32.961c0 0.44 0.3543 0.794 0.7943 0.794h18.565c0.44 0 0.795-0.354 0.795-0.794v-32.961c0-0.4401-0.355-0.7944-0.795-0.7944h-18.565z"
      transform="matrix(.94162 0 0 .94162 1.9716 10.884)"
  />
  <path
      id="rect843"
      style="stroke-linejoin:round;fill-rule:evenodd;stroke:#000000;stroke-width:1.9913;fill:#ffffff"
      d="m33.515 8.1756c-0.44 0-0.794 0.3543-0.794 0.7943v32.961c0 0.44 0.354 0.794 0.794 0.794h18.565c0.44 0 0.795-0.354 0.795-0.794v-32.961c0-0.4401-0.355-0.7944-0.795-0.7944h-18.565z"
      transform="matrix(.94162 0 0 .94162 .78550 10.884)"
  />
  <g
      id="g1557"
      transform="matrix(.94284 0 0 .94284 1.6855 1.9827)"
    >
    <path
        id="rect844"
        style="stroke-linejoin:round;fill-rule:evenodd;stroke:#000000;stroke-width:1.9913;fill:#000000"
        d="m26.729 10.875c-0.154 0-0.277 0.123-0.277 0.276v6.465c0 0.153 0.123 0.277 0.277 0.277h6.464c0.154 0 0.277-0.124 0.277-0.277v-6.465c0-0.153-0.123-0.276-0.277-0.276h-6.464z"
        transform="matrix(.99870 0 0 .99870 .10907 10.057)"
    />
    <path
        id="rect845"
        style="stroke-linejoin:round;fill-rule:evenodd;stroke:#000000;stroke-width:1.9913;fill:#000000"
        d="m26.729 32.135c-0.154 0-0.277 0.123-0.277 0.276v6.465c0 0.153 0.123 0.277 0.277 0.277h6.464c0.154 0 0.277-0.124 0.277-0.277v-6.465c0-0.153-0.123-0.276-0.277-0.276h-6.464z"
        transform="matrix(.99870 0 0 .99870 .10907 9.6973)"
    />
  </g
  >
  <g
      id="g1780"
      style="stroke:#ffffff"
      transform="translate(-75)"
    >
    <path
        id="path1109"
        style="stroke-linejoin:round;stroke:#ffffff;stroke-linecap:round;stroke-width:11.373;fill:none"
        d="m54.755 61.274l-12.896 9.383 7.946-13.818 4.95 4.435z"
        transform="matrix(.65944 0 0 .65944 60.45 -8.4657)"
    />
    <rect
        id="rect1111"
        style="stroke-linejoin:round;stroke:#ffffff;stroke-linecap:round;stroke-width:11.373;fill:none"
        transform="matrix(-.48910 -.44232 .44232 -.48910 60.45 -8.4657)"
        height="47.133"
        width="6.5463"
        y="-8.7019"
        x="-81.666"
    />
    <path
        id="path1112"
        style="stroke-linejoin:round;stroke:#ffffff;stroke-width:8.3999;fill:none"
        d="m61.966 18.726c0 0.343-0.278 0.621-0.62 0.621s-0.62-0.278-0.62-0.621c0-0.342 0.278-0.62 0.62-0.62s0.62 0.278 0.62 0.62z"
        transform="matrix(-.66222 -.59890 .59890 -.66222 119.57 84.899)"
    />
    <path
        id="path1113"
        style="stroke-linejoin:round;stroke:#ffffff;stroke-width:11.373;fill:none"
        d="m-80 38.284c-1.141 0-2.058 0.906-2.058 2.03s0.917 2.029 2.058 2.029h3.346c1.141 0 2.058-0.905 2.058-2.029s-0.917-2.03-2.058-2.03h-3.346z"
        transform="matrix(-.48910 -.44232 .44232 -.48910 60.45 -8.4657)"
    />
  </g
  >
  <path
      id="path599"
      style="stroke-linejoin:round;fill-rule:evenodd;stroke:#000000;stroke-linecap:round;stroke-width:3.3144;fill:#000000"
      d="m54.755 61.274l-12.896 9.383 7.946-13.818 4.95 4.435z"
      transform="matrix(.65944 0 0 .65944 -14.55 -8.4657)"
  />
  <g
      id="g867"
      transform="matrix(.94284 0 0 .94284 1.6847 1.7758)"
    >
    <rect
        id="rect598"
        style="stroke-linejoin:round;fill-rule:evenodd;stroke:#000000;stroke-linecap:round;stroke-width:3.3144;fill:#ffffff"
        transform="matrix(-.51874 -.46914 .46914 -.51874 -17.219 -10.862)"
        height="47.133"
        width="6.5463"
        y="-8.7019"
        x="-81.666"
    />
    <path
        id="path600"
        style="stroke-linejoin:round;fill-rule:evenodd;stroke:#000000;stroke-width:2.8;fill:#000000"
        d="m61.966 18.726c0 0.343-0.278 0.621-0.62 0.621s-0.62-0.278-0.62-0.621c0-0.342 0.278-0.62 0.62-0.62s0.62 0.278 0.62 0.62z"
        transform="matrix(-.70237 -.63520 .63520 -.70237 45.49 88.163)"
    />
    <path
        id="rect601"
        style="stroke-linejoin:round;fill-rule:evenodd;stroke:#000000;stroke-width:3.7911;fill:#ffffff"
        d="m-80 38.284c-1.141 0-2.058 0.906-2.058 2.03s0.917 2.029 2.058 2.029h3.346c1.141 0 2.058-0.905 2.058-2.029s-0.917-2.03-2.058-2.03h-3.346z"
        transform="matrix(-.51874 -.46914 .46914 -.51874 -17.219 -10.862)"
    />
  </g
  >
  <path
      id="path828"
      style="fill:#000000"
      d="m40.853 43.432v-0.915c-0.649-0.046-1.312-0.136-1.988-0.268-0.676-0.133-1.282-0.371-1.819-0.716-0.53-0.351-0.795-0.818-0.795-1.401 0-0.438 0.139-0.832 0.417-1.183 0.285-0.352 0.633-0.527 1.044-0.527 0.179 0 0.5 0.099 0.964 0.298s0.842 0.348 1.133 0.447c0.299 0.1 0.647 0.15 1.044 0.15v-3.191c-0.848-0.259-1.56-0.527-2.137-0.805-0.577-0.285-1.044-0.597-1.402-0.935-0.357-0.344-0.616-0.716-0.775-1.113-0.152-0.398-0.229-0.838-0.229-1.322 0-0.676 0.12-1.292 0.358-1.849 0.239-0.563 0.564-1.047 0.974-1.451 0.418-0.411 0.905-0.739 1.462-0.984 0.556-0.246 1.139-0.391 1.749-0.438v-0.964c0-0.404 0.202-0.606 0.606-0.606 0.411 0 0.617 0.202 0.617 0.606v0.964c0.497 0.014 1.024 0.09 1.58 0.229 0.564 0.132 1.041 0.358 1.432 0.676s0.586 0.742 0.586 1.272c0 0.259-0.06 0.51-0.179 0.756-0.112 0.238-0.275 0.43-0.487 0.576-0.205 0.146-0.437 0.219-0.696 0.219-0.159 0-0.351-0.05-0.576-0.149-0.219-0.1-0.418-0.196-0.597-0.289-0.179-0.099-0.354-0.178-0.526-0.238-0.173-0.066-0.352-0.1-0.537-0.1v2.913c1.385 0.378 2.495 0.911 3.33 1.6 0.841 0.69 1.262 1.68 1.262 2.972 0 0.769-0.142 1.455-0.427 2.058-0.279 0.596-0.646 1.097-1.104 1.501-0.45 0.398-0.944 0.702-1.481 0.915-0.537 0.212-1.063 0.337-1.58 0.377v0.915c0 0.404-0.206 0.606-0.617 0.606-0.404 0-0.606-0.202-0.606-0.606zm0-10.706v-2.545c-0.331 0.073-0.603 0.229-0.815 0.468-0.205 0.232-0.308 0.53-0.308 0.894 0 0.305 0.103 0.557 0.308 0.756 0.212 0.199 0.484 0.341 0.815 0.427zm1.223 3.718v2.873c0.324 0 0.6-0.143 0.825-0.428 0.232-0.285 0.348-0.61 0.348-0.974 0-0.418-0.1-0.736-0.298-0.954-0.193-0.226-0.484-0.398-0.875-0.517z"
  />
  <metadata
    >
    <rdf:RDF
      >
      <cc:Work
        >
        <dc:format
          >image/svg+xml</dc:format
        >
        <dc:type
            rdf:resource="http://purl.org/dc/dcmitype/StillImage"
        />
        <cc:license
            rdf:resource="http://creativecommons.org/licenses/publicdomain/"
        />
        <dc:publisher
          >
          <cc:Agent
              rdf:about="http://openclipart.org/"
            >
            <dc:title
              >Openclipart</dc:title
            >
          </cc:Agent
          >
        </dc:publisher
        >
      </cc:Work
      >
      <cc:License
          rdf:about="http://creativecommons.org/licenses/publicdomain/"
        >
        <cc:permits
            rdf:resource="http://creativecommons.org/ns#Reproduction"
        />
        <cc:permits
            rdf:resource="http://creativecommons.org/ns#Distribution"
        />
        <cc:permits
            rdf:resource="http://creativecommons.org/ns#DerivativeWorks"
        />
      </cc:License
      >
    </rdf:RDF
    >
  </metadata
  >
</svg
>
